…
    ## Rows: 68 Columns: 13
    ## ── Column specification ────────────────────────────────────────────────────────
    ## Delimiter: ","
    ## dbl (13): Year, Jan, Feb, Mar, Apr, May, Jun, Jul, Aug, Sep, Oct, Nov, Dec
    ## 
    ## ℹ Use `spec()` to retrieve the full column specification for this data.
    ## ℹ Specify the column types or set `show_col_types = FALSE` to quiet this message.

``` r
ft_df = left_join(pols_df, snp_df, by = c("year", "month"))
Sd_df = left_join(ft_df, unemploy_df, by = c("year", "month"))
print(Sd_df)
```

    ## # A tibble: 822 × 11
    ##   year  month    gov_gop sen_gop rep_gop gov_dem sen_dem rep_dem president close
    ##   <chr> <chr>      <dbl>   <dbl>   <dbl>   <dbl>   <dbl>   <dbl> <chr>     <dbl>
    ## 1 1947  January       23      51     253      23      45     198 Democrat…    NA
    ## 2 1947  February      23      51     253      23      45     198 Democrat…    NA
    ## 3 1947  March         23      51     253      23      45     198 Democrat…    NA
    ## 4 1947  April         23      51     253      23      45     198 Democrat…    NA
    ## 5 1947  May           23      51     253      23      45     198 Democrat…    NA
    ## # ℹ 817 more rows
    ## # ℹ 1 more variable: unemployment_percent <dbl>
…
